{
  "items": [
    {
      "id": "1",
      "title": "Основополагающие документы"
    },
    {
      "id": "1.1",
      "title": "Техническое регулирование и стандартизация"
    },
    {
      "id": "1.2",
      "title": "Метрологическое обеспечение"
    },
    {
      "id": "1.3",
      "title": "Безопасность дорожного движения"
    },
    {
      "id": "1.3.1",
      "title": "Аудит безопасности"
    },
    {
      "id": "1.3.2",
      "title": "Организация дорожного движения"
    },
    {
      "id": "1.4",
      "title": "Охрана окружающей среды"
    },
    {
      "id": "2",
      "title": "Изыскания"
    },
    {
      "id": "2.1",
      "title": "Инженерно-экологические изыскания"
    },
    {
      "id": "2.2",
      "title": "Топографо-геодезические изыскания"
    },
    {
      "id": "2.3",
      "title": "Инженерно-геологические изыскания"
    },
    {
      "id": "2.4",
      "title": "Инженерно-гидрометеорологические изыскания"
    },
    {
      "id": "2.5",
      "title": "Инженерно-геотехнические изыскания"
    },
    {
      "id": "2.6",
      "title": "Экономические изыскания"
    },
    {
      "id": "2.7",
      "title": "Другое"
    },
    {
      "id": "3",
      "title": "Проектирование"
    },
    {
      "id": "3.1",
      "title": "Автомобильные дороги"
    },
    {
      "id": "3.1.1",
      "title": "Земляное полотно"
    },
    {
      "id": "3.1.2",
      "title": "Основание дорожной одежды"
    },
    {
      "id": "3.1.3",
      "title": "Покрытие дорожной одежды"
    },
    {
      "id": "3.1.4",
      "title": "Другое"
    },
    {
      "id": "3.2",
      "title": "Мостовые сооружения"
    },
    {
      "id": "3.2.1",
      "title": "Основание и фундамент"
    },
    {
      "id": "3.2.2",
      "title": "Опоры"
    },
    {
      "id": "3.2.3",
      "title": "Пролетное строение"
    },
    {
      "id": "3.2.4",
      "title": "Мостовое полотно"
    },
    {
      "id": "3.2.5",
      "title": "Вспомогательные элементы защиты от воздействий"
    },
    {
      "id": "3.2.6",
      "title": "Элементы мостовых сооружений"
    },
    {
      "id": "3.2.7",
      "title": "Другое"
    },
    {
      "id": "3.3",
      "title": "Тоннели"
    },
    {
      "id": "3.4",
      "title": "Водопропускные трубы"
    },
    {
      "id": "4",
      "title": "Строительство и реконструкция"
    },
    {
      "id": "4.1",
      "title": "Автомобильные дороги"
    },
    {
      "id": "4.1.1",
      "title": "Земляное полотно"
    },
    {
      "id": "4.1.2",
      "title": "Основание дорожной одежды"
    },
    {
      "id": "4.1.3",
      "title": "Покрытие дорожной одежды"
    },
    {
      "id": "4.1.4",
      "title": "Другое"
    },
    {
      "id": "4.2",
      "title": "Мостовые сооружения"
    },
    {
      "id": "4.2.1",
      "title": "Основание и фундамент"
    },
    {
      "id": "4.2.2",
      "title": "Опоры"
    },
    {
      "id": "4.2.3",
      "title": "Пролетное строение"
    },
    {
      "id": "4.2.4",
      "title": "Мостовое полотно"
    },
    {
      "id": "4.2.5",
      "title": "Вспомогательные элементы защиты от воздействий"
    },
    {
      "id": "4.2.6",
      "title": "Элементы мостовых сооружений"
    },
    {
      "id": "4.2.7",
      "title": "Другое"
    },
    {
      "id": "4.3",
      "title": "Тоннели"
    },
    {
      "id": "4.4",
      "title": "Водопропускные трубы"
    },
    {
      "id": "5",
      "title": "Капитальный ремонт"
    },
    {
      "id": "5.1",
      "title": "Автомобильные дороги"
    },
    {
      "id": "5.1.1",
      "title": "Земляное полотно"
    },
    {
      "id": "5.1.2",
      "title": "Основание дорожной одежды"
    },
    {
      "id": "5.1.3",
      "title": "Покрытие дорожной одежды"
    },
    {
      "id": "5.1.4",
      "title": "Другое"
    },
    {
      "id": "5.2",
      "title": "Мостовые сооружения"
    },
    {
      "id": "5.2.1",
      "title": "Основание и фундамент"
    },
    {
      "id": "5.2.2",
      "title": "Опоры"
    },
    {
      "id": "5.2.3",
      "title": "Пролетное строение"
    },
    {
      "id": "5.2.4",
      "title": "Мостовое полотно"
    },
    {
      "id": "5.2.5",
      "title": "Вспомогательные элементы защиты от воздействий"
    },
    {
      "id": "5.2.6",
      "title": "Элементы мостовых сооружений"
    },
    {
      "id": "5.2.7",
      "title": "Другое"
    },
    {
      "id": "5.3",
      "title": "Тоннели"
    },
    {
      "id": "5.4",
      "title": "Водопропускные трубы"
    },
    {
      "id": "6",
      "title": "Эксплуатация (текущий ремонт и содержание)"
    },
    {
      "id": "6.1",
      "title": "Автомобильные дороги"
    },
    {
      "id": "6.1.1",
      "title": "Земляное полотно"
    },
    {
      "id": "6.1.2",
      "title": "Основание дорожной одежды"
    },
    {
      "id": "6.1.3",
      "title": "Покрытие дорожной одежды"
    },
    {
      "id": "6.1.4",
      "title": "Другое"
    },
    {
      "id": "6.2",
      "title": "Мостовые сооружения"
    },
    {
      "id": "6.2.1",
      "title": "Основание и фундамент"
    },
    {
      "id": "6.2.2",
      "title": "Опоры"
    },
    {
      "id": "6.2.3",
      "title": "Пролетное строение"
    },
    {
      "id": "6.2.4",
      "title": "Мостовое полотно"
    },
    {
      "id": "6.2.5",
      "title": "Вспомогательные элементы защиты от воздействий"
    },
    {
      "id": "6.2.6",
      "title": "Элементы мостовых сооружений"
    },
    {
      "id": "6.2.7",
      "title": "Другое"
    },
    {
      "id": "6.3",
      "title": "Тоннели"
    },
    {
      "id": "6.4",
      "title": "Водопропускные трубы"
    },
    {
      "id": "7",
      "title": "Диагностика"
    },
    {
      "id": "7.1",
      "title": "Автомобильные дороги"
    },
    {
      "id": "7.2",
      "title": "Мостовые сооружения"
    },
    {
      "id": "7.3",
      "title": "Тоннели"
    },
    {
      "id": "8",
      "title": "Дорожно-строительные материалы"
    },
    {
      "id": "8.1",
      "title": "Грунты"
    },
    {
      "id": "8.2",
      "title": "Каменные материалы"
    },
    {
      "id": "8.3",
      "title": "Органические вяжущие"
    },
    {
      "id": "8.4",
      "title": "Неорганические вяжущие"
    },
    {
      "id": "8.5",
      "title": "Геосинтетические материалы"
    },
    {
      "id": "8.6",
      "title": "Материалы для дорожной разметки"
    },
    {
      "id": "8.7",
      "title": "Асфальтобетон"
    },
    {
      "id": "8.8",
      "title": "Цементобетон"
    },
    {
      "id": "8.9",
      "title": "Вторичные материалы"
    },
    {
      "id": "8.10",
      "title": "Материалы для гидроизоляции"
    },
    {
      "id": "8.11",
      "title": "Противогололедные материалы"
    },
    {
      "id": "8.12",
      "title": "Другое"
    },
    {
      "id": "9",
      "title": "Изделия"
    },
    {
      "id": "9.1",
      "title": "Элементы обустройства"
    },
    {
      "id": "9.2",
      "title": "Водоотвод дорожный"
    },
    {
      "id": "9.3",
      "title": "Другое"
    },
    {
      "id": "10",
      "title": "Информационно-управляющие системы"
    },
    {
      "id": "11",
      "title": "Другое"
    }
  ]
}
