{
  "items": [
    {
      "id": 0,
      "title": "Отсутствуют"
    },
    {
      "id": 1,
      "title": "Базовые и критические военные и промышленные технологии для создания перспективных видов вооружения, военной и специальной техники"
    },
    {
      "id": 2,
      "title": "Базовые технологии силовой электротехники"
    },
    {
      "id": 3,
      "title": "Биокаталитические, биосинтетические и биосенсорные технологии"
    },
    {
      "id": 4,
      "title": "Биомедицинские и ветеринарные технологии"
    },
    {
      "id": 5,
      "title": "Геномные, протеомные и постгеномные технологии"
    },
    {
      "id": 6,
      "title": "Клеточные технологии"
    },
    {
      "id": 7,
      "title": "Компьютерное моделирование наноматериалов, наноустройств и нанотехнологий"
    },
    {
      "id": 8,
      "title": "Нано-, био-, информационные, когнитивные технологии"
    },
    {
      "id": 9,
      "title": "Технологии атомной энергетики, ядерного топливного цикла, безопасного обращения с радиоактивными отходами и отработавшим ядерным топливом"
    },
    {
      "id": 10,
      "title": "Технологии биоинженерии"
    },
    {
      "id": 11,
      "title": "Технологии диагностики наноматериалов и наноустройств"
    },
    {
      "id": 12,
      "title": "Технологии доступа к широкополосным мультимедийным услугам"
    },
    {
      "id": 13,
      "title": "Технологии информационных, управляющих, навигационных систем"
    },
    {
      "id": 14,
      "title": "Технологии наноустройств и микросистемной техники"
    },
    {
      "id": 15,
      "title": "Технологии новых и возобновляемых источников энергии, включая водородную энергетику"
    },
    {
      "id": 16,
      "title": "Технологии получения и обработки конструкционных наноматериалов"
    },
    {
      "id": 17,
      "title": "Технологии получения и обработки функциональных наноматериалов"
    },
    {
      "id": 18,
      "title": "Технологии и программное обеспечение распределенных и высокопроизводительных вычислительных систем"
    },
    {
      "id": 19,
      "title": "Технологии мониторинга и прогнозирования состояния окружающей среды, предотвращения и ликвидации ее загрязнения"
    },
    {
      "id": 20,
      "title": "Технологии поиска, разведки, разработки месторождений полезных ископаемых и их добычи"
    },
    {
      "id": 21,
      "title": "Технологии предупреждения и ликвидации чрезвычайных ситуаций природного и техногенного характера"
    },
    {
      "id": 22,
      "title": "Технологии снижения потерь от социально значимых заболеваний"
    },
    {
      "id": 23,
      "title": "Технологии создания высокоскоростных транспортных средств и интеллектуальных систем управления новыми видами транспорта"
    },
    {
      "id": 24,
      "title": "Технологии создания ракетно-космической и транспортной техники нового поколения"
    },
    {
      "id": 25,
      "title": "Технологии создания электронной компонентной базы и энергоэффективных световых устройств"
    },
    {
      "id": 26,
      "title": "Технологии создания энергосберегающих систем транспортировки, распределения и использования энергии"
    },
    {
      "id": 27,
      "title": "Технологии энергоэффективного производства и преобразования энергии на органическом топливе"
    },
    {
      "id": 28,
      "title": "Технологии создания мембран и каталитических систем"
    },
    {
      "id": 29,
      "title": "Технологии создания новых поколений ракетно-космической, авиационной и морской техники"
    },
    {
      "id": 30,
      "title": "Технологии создания электронной компонентной базы"
    },
    {
      "id": 31,
      "title": "Технологии создания энергосберегающих систем транспортировки, распределения и потребления тепла и электроэнергии"
    },
    {
      "id": 32,
      "title": "Технологии создания энергоэффективных двигателей и движителей для транспортных систем"
    },
    {
      "id": 33,
      "title": "Технологии экологически безопасного ресурсосберегающего производства и переработки сельскохозяйственного сырья и продуктов питания"
    },
    {
      "id": 34,
      "title": "Технологии экологически безопасной разработки месторождений и добычи полезных ископаемых"
    }
  ]
}
