{
  "items": [
    "ПУ (управление реорганизовано в 2013 г.)",
    "Спецотдел",
    "УАКиОР (управление реорганизовано в 2019 г.)",
    "УАКРиПО",
    "УД (управление реорганизовано в 2013 г.)",
    "УДП",
    "УЗИО",
    "УИ",
    "УИ (управление реорганизовано в 2013 г.)",
    "УКР (управление реорганизовано в 2013 г.)",
    "УНТИ (управление реорганизованно в 2021 г.)",
    "УНТИИТиХО",
    "УНТК (управление реорганизовано в 2006 г.)",
    "УПД (управление расформировано в 2011 г.)",
    "УПО (управление расформировано в 2019 г.)",
    "УПС (управление реорганизовано в 2013 г.)",
    "УПС (управление реорганизовано в 2016 г.)",
    "УРРиРНП",
    "УСАД",
    "УСЭ (управление реорганизовано в 2021 г.)",
    "УТБ",
    "УЭ (управление реорганизовано в 2013 г.)",
    "УЭ (управление реорганизовано в 2016 г.)",
    "УЭАД",
    "УЭП (управление реорганизовано в 2013 г.)",
    "ФДА или Росавтодор",
    "ФКУ \"Росдоринформсвязь\"",
    "ФКУ \"Росдормониторинг\"",
    "ФУ (управление реорганизовано в 2013 г.)",
    "ФЭУ"
  ]
}
